[gd_resource type="Theme" load_steps=2 format=3 uid="uid://dhogt56j6bnpe"]

[sub_resource type="StyleBoxFlat" id="StyleBoxFlat_bst8d"]
bg_color = Color(0.6, 0.6, 0.6, 0.298039)

[resource]
Button/styles/normal = SubResource("StyleBoxFlat_bst8d")
