[gd_resource type="StandardMaterial3D" load_steps=5 format=2]
[ext_resource path="wooden_door_albedo.png" type="Texture" id=1]
[ext_resource path="wooden_door_orm.png" type="Texture" id=2]
[ext_resource path="wooden_door_normal.png" type="Texture" id=3]
[resource]
albedo_color = Color(1, 1, 1, 1)
albedo_texture = ExtResource( 1 )
metallic = 0
roughness = 0.43
roughness_texture = ExtResource( 2 )
roughness_texture_channel = 1
normal_enabled = true
normal_scale = 1
normal_texture = ExtResource( 3 )
ao_enabled = true
ao_texture = ExtResource( 2 )
ao_texture_channel = 0



