[gd_resource type="StandardMaterial3D" load_steps=5 format=3 uid="uid://c8hghh8r7hoid"]

[ext_resource type="Texture2D" uid="uid://be3vu4bxdcbw0" path="res://Materials/wooden_ceiling_albedo.png" id="1"]
[ext_resource type="Texture2D" uid="uid://d31e0oh56nykx" path="res://Materials/wooden_ceiling_orm.png" id="2"]
[ext_resource type="Texture2D" uid="uid://bfjla0wgfeib1" path="res://Materials/wooden_ceiling_normal.png" id="3"]
[ext_resource type="Texture2D" uid="uid://nbuynk4ube7f" path="res://Materials/wooden_ceiling_heightmap.png" id="4"]

[resource]
albedo_texture = ExtResource("1")
roughness_texture = ExtResource("2")
roughness_texture_channel = 1
normal_enabled = true
normal_texture = ExtResource("3")
ao_enabled = true
ao_texture = ExtResource("2")
heightmap_enabled = true
heightmap_scale = 1.25
heightmap_deep_parallax = true
heightmap_min_layers = 8
heightmap_max_layers = 32
heightmap_texture = ExtResource("4")
uv1_scale = Vector3(10, 10, 10)
